COMPLETE TB USING UVM/ADDER/output.txt
//output
 # KERNEL: UVM_INFO @ 0: reporter [RNTST] Running test test...
# KERNEL: UVM_INFO /home/runner/testbench.sv(38) @ 0: uvm_test_top.e.a.seqr@@gen [GEN] Data send to Driver a :10 , b :6
# KERNEL: UVM_INFO /home/runner/testbench.sv(69) @ 0: uvm_test_top.e.a.d [DRV] Trigger DUT a: 10 ,b :  6
# KERNEL: UVM_INFO /home/runner/testbench.sv(105) @ 10000: uvm_test_top.e.a.m [MON] Data send to Scoreboard a : 10 , b : 6 and y : 16
# KERNEL: UVM_INFO /home/runner/testbench.sv(130) @ 10000: uvm_test_top.e.s [SCO] Data rcvd from Monitor a: 10 , b : 6 and y : 16
# KERNEL: UVM_INFO /home/runner/testbench.sv(133) @ 10000: uvm_test_top.e.s [SCO] Test Passed
# KERNEL: UVM_INFO /home/runner/testbench.sv(38) @ 10000: uvm_test_top.e.a.seqr@@gen [GEN] Data send to Driver a :7 , b :15
# KERNEL: UVM_INFO /home/runner/testbench.sv(69) @ 10000: uvm_test_top.e.a.d [DRV] Trigger DUT a: 7 ,b :  15
# KERNEL: UVM_INFO /home/runner/testbench.sv(105) @ 20000: uvm_test_top.e.a.m [MON] Data send to Scoreboard a : 7 , b : 15 and y : 22
# KERNEL: UVM_INFO /home/runner/testbench.sv(130) @ 20000: uvm_test_top.e.s [SCO] Data rcvd from Monitor a: 7 , b : 15 and y : 22
# KERNEL: UVM_INFO /home/runner/testbench.sv(133) @ 20000: uvm_test_top.e.s [SCO] Test Passed
# KERNEL: UVM_INFO /home/runner/testbench.sv(38) @ 20000: uvm_test_top.e.a.seqr@@gen [GEN] Data send to Driver a :1 , b :1
# KERNEL: UVM_INFO /home/runner/testbench.sv(69) @ 20000: uvm_test_top.e.a.d [DRV] Trigger DUT a: 1 ,b :  1
# KERNEL: UVM_INFO /home/runner/testbench.sv(105) @ 30000: uvm_test_top.e.a.m [MON] Data send to Scoreboard a : 1 , b : 1 and y : 2
# KERNEL: UVM_INFO /home/runner/testbench.sv(130) @ 30000: uvm_test_top.e.s [SCO] Data rcvd from Monitor a: 1 , b : 1 and y : 2
# KERNEL: UVM_INFO /home/runner/testbench.sv(133) @ 30000: uvm_test_top.e.s [SCO] Test Passed
# KERNEL: UVM_INFO /home/runner/testbench.sv(38) @ 30000: uvm_test_top.e.a.seqr@@gen [GEN] Data send to Driver a :8 , b :12
# KERNEL: UVM_INFO /home/runner/testbench.sv(69) @ 30000: uvm_test_top.e.a.d [DRV] Trigger DUT a: 8 ,b :  12
# KERNEL: UVM_INFO /home/runner/testbench.sv(105) @ 40000: uvm_test_top.e.a.m [MON] Data send to Scoreboard a : 8 , b : 12 and y : 20
# KERNEL: UVM_INFO /home/runner/testbench.sv(130) @ 40000: uvm_test_top.e.s [SCO] Data rcvd from Monitor a: 8 , b : 12 and y : 20
# KERNEL: UVM_INFO /home/runner/testbench.sv(133) @ 40000: uvm_test_top.e.s [SCO] Test Passed
# KERNEL: UVM_INFO /home/runner/testbench.sv(38) @ 40000: uvm_test_top.e.a.seqr@@gen [GEN] Data send to Driver a :12 , b :0
# KERNEL: UVM_INFO /home/runner/testbench.sv(69) @ 40000: uvm_test_top.e.a.d [DRV] Trigger DUT a: 12 ,b :  0
# KERNEL: UVM_INFO /home/runner/testbench.sv(105) @ 50000: uvm_test_top.e.a.m [MON] Data send to Scoreboard a : 12 , b : 0 and y : 12
# KERNEL: UVM_INFO /home/runner/testbench.sv(130) @ 50000: uvm_test_top.e.s [SCO] Data rcvd from Monitor a: 12 , b : 0 and y : 12
# KERNEL: UVM_INFO /home/runner/testbench.sv(133) @ 50000: uvm_test_top.e.s [SCO] Test Passed
# KERNEL: UVM_INFO /home/runner/testbench.sv(38) @ 50000: uvm_test_top.e.a.seqr@@gen [GEN] Data send to Driver a :13 , b :13
# KERNEL: UVM_INFO /home/runner/testbench.sv(69) @ 50000: uvm_test_top.e.a.d [DRV] Trigger DUT a: 13 ,b :  13
# KERNEL: UVM_INFO /home/runner/testbench.sv(105) @ 60000: uvm_test_top.e.a.m [MON] Data send to Scoreboard a : 13 , b : 13 and y : 26
# KERNEL: UVM_INFO /home/runner/testbench.sv(130) @ 60000: uvm_test_top.e.s [SCO] Data rcvd from Monitor a: 13 , b : 13 and y : 26
# KERNEL: UVM_INFO /home/runner/testbench.sv(133) @ 60000: uvm_test_top.e.s [SCO] Test Passed
# KERNEL: UVM_INFO /home/runner/testbench.sv(38) @ 60000: uvm_test_top.e.a.seqr@@gen [GEN] Data send to Driver a :11 , b :3
# KERNEL: UVM_INFO /home/runner/testbench.sv(69) @ 60000: uvm_test_top.e.a.d [DRV] Trigger DUT a: 11 ,b :  3
# KERNEL: UVM_INFO /home/runner/testbench.sv(105) @ 70000: uvm_test_top.e.a.m [MON] Data send to Scoreboard a : 11 , b : 3 and y : 14
# KERNEL: UVM_INFO /home/runner/testbench.sv(130) @ 70000: uvm_test_top.e.s [SCO] Data rcvd from Monitor a: 11 , b : 3 and y : 14
# KERNEL: UVM_INFO /home/runner/testbench.sv(133) @ 70000: uvm_test_top.e.s [SCO] Test Passed
# KERNEL: UVM_INFO /home/runner/testbench.sv(38) @ 70000: uvm_test_top.e.a.seqr@@gen [GEN] Data send to Driver a :6 , b :2
# KERNEL: UVM_INFO /home/runner/testbench.sv(69) @ 70000: uvm_test_top.e.a.d [DRV] Trigger DUT a: 6 ,b :  2
# KERNEL: UVM_INFO /home/runner/testbench.sv(105) @ 80000: uvm_test_top.e.a.m [MON] Data send to Scoreboard a : 6 , b : 2 and y : 8
# KERNEL: UVM_INFO /home/runner/testbench.sv(130) @ 80000: uvm_test_top.e.s [SCO] Data rcvd from Monitor a: 6 , b : 2 and y : 8
# KERNEL: UVM_INFO /home/runner/testbench.sv(133) @ 80000: uvm_test_top.e.s [SCO] Test Passed
# KERNEL: UVM_INFO /home/runner/testbench.sv(38) @ 80000: uvm_test_top.e.a.seqr@@gen [GEN] Data send to Driver a :14 , b :10
# KERNEL: UVM_INFO /home/runner/testbench.sv(69) @ 80000: uvm_test_top.e.a.d [DRV] Trigger DUT a: 14 ,b :  10
# KERNEL: UVM_INFO /home/runner/testbench.sv(105) @ 90000: uvm_test_top.e.a.m [MON] Data send to Scoreboard a : 14 , b : 10 and y : 24
# KERNEL: UVM_INFO /home/runner/testbench.sv(130) @ 90000: uvm_test_top.e.s [SCO] Data rcvd from Monitor a: 14 , b : 10 and y : 24
# KERNEL: UVM_INFO /home/runner/testbench.sv(133) @ 90000: uvm_test_top.e.s [SCO] Test Passed
# KERNEL: UVM_INFO /home/runner/testbench.sv(38) @ 90000: uvm_test_top.e.a.seqr@@gen [GEN] Data send to Driver a :3 , b :11
# KERNEL: UVM_INFO /home/runner/testbench.sv(69) @ 90000: uvm_test_top.e.a.d [DRV] Trigger DUT a: 3 ,b :  11
# KERNEL: UVM_INFO /home/runner/testbench.sv(105) @ 100000: uvm_test_top.e.a.m [MON] Data send to Scoreboard a : 3 , b : 11 and y : 14
# KERNEL: UVM_INFO /home/runner/testbench.sv(130) @ 100000: uvm_test_top.e.s [SCO] Data rcvd from Monitor a: 3 , b : 11 and y : 14
# KERNEL: UVM_INFO /home/runner/testbench.sv(133) @ 100000: uvm_test_top.e.s [SCO] Test Passed
# KERNEL: UVM_INFO /home/runner/testbench.sv(105) @ 110000: uvm_test_top.e.a.m [MON] Data send to Scoreboard a : 3 , b : 11 and y : 14
# KERNEL: UVM_INFO /home/runner/testbench.sv(130) @ 110000: uvm_test_top.e.s [SCO] Data rcvd from Monitor a: 3 , b : 11 and y : 14
# KERNEL: UVM_INFO /home/runner/testbench.sv(133) @ 110000: uvm_test_top.e.s [SCO] Test Passed
# KERNEL: UVM_INFO /home/runner/testbench.sv(105) @ 120000: uvm_test_top.e.a.m [MON] Data send to Scoreboard a : 3 , b : 11 and y : 14
# KERNEL: UVM_INFO /home/runner/testbench.sv(130) @ 120000: uvm_test_top.e.s [SCO] Data rcvd from Monitor a: 3 , b : 11 and y : 14
# KERNEL: UVM_INFO /home/runner/testbench.sv(133) @ 120000: uvm_test_top.e.s [SCO] Test Passed
# KERNEL: UVM_INFO /home/runner/testbench.sv(105) @ 130000: uvm_test_top.e.a.m [MON] Data send to Scoreboard a : 3 , b : 11 and y : 14
# KERNEL: UVM_INFO /home/runner/testbench.sv(130) @ 130000: uvm_test_top.e.s [SCO] Data rcvd from Monitor a: 3 , b : 11 and y : 14
# KERNEL: UVM_INFO /home/runner/testbench.sv(133) @ 130000: uvm_test_top.e.s [SCO] Test Passed
# KERNEL: UVM_INFO /home/runner/testbench.sv(105) @ 140000: uvm_test_top.e.a.m [MON] Data send to Scoreboard a : 3 , b : 11 and y : 14
# KERNEL: UVM_INFO /home/runner/testbench.sv(130) @ 140000: uvm_test_top.e.s [SCO] Data rcvd from Monitor a: 3 , b : 11 and y : 14
# KERNEL: UVM_INFO /home/runner/testbench.sv(133) @ 140000: uvm_test_top.e.s [SCO] Test Passed
# KERNEL: UVM_INFO ./uvm-1.2/src/base/uvm_objection.svh(1271) @ 140000: reporter [TEST_DONE] 'run' phase is ready to proceed to the 'extract' phase